base R functions compared to purrr and dplyr
…
(tbl <- state.x77 |>
  tibble::as_tibble(rownames = "State") |>
  dplyr::mutate(Region = as.character(state.region)))

# A tibble: 50 × 10
   State   Population Income Illiteracy `Life Exp` Murder `HS Grad` Frost   Area
   <chr>        <dbl>  <dbl>      <dbl>      <dbl>  <dbl>     <dbl> <dbl>  <dbl>
 1 Alabama       3615   3624        2.1       69.0   15.1      41.3    20  50708
 2 Alaska         365   6315        1.5       69.3   11.3      66.7   152 566432
 3 Arizona       2212   4530        1.8       70.6    7.8      58.1    15 113417
 4 Arkans…       2110   3378        1.9       70.7   10.1      39.9    65  51945
 5 Califo…      21198   5114        1.1       71.7   10.3      62.6    20 156361
 6 Colora…       2541   4884        0.7       72.1    6.8      63.9   166 103766
 7 Connec…       3100   5348        1.1       72.5    3.1      56     139   4862
 8 Delawa…        579   4809        0.9       70.1    6.2      54.6   103   1982
 9 Florida       8277   4815        1.3       70.7   10.7      52.6    11  54090
10 Georgia       4931   4091        2         68.5   13.9      40.6    60  58073
# ℹ 40 more rows
# ℹ 1 more variable: Region <chr>
…
tbl |>
  dplyr::filter(Population > 4500, Income > 4500)

# A tibble: 9 × 10
  State    Population Income Illiteracy `Life Exp` Murder `HS Grad` Frost   Area
  <chr>         <dbl>  <dbl>      <dbl>      <dbl>  <dbl>     <dbl> <dbl>  <dbl>
1 Califor…      21198   5114        1.1       71.7   10.3      62.6    20 156361
2 Florida        8277   4815        1.3       70.7   10.7      52.6    11  54090
3 Illinois      11197   5107        0.9       70.1   10.3      52.6   127  55748
4 Massach…       5814   4755        1.1       71.8    3.3      58.5   103   7826
5 Michigan       9111   4751        0.9       70.6   11.1      52.8   125  56817
6 New Jer…       7333   5237        1.1       70.9    5.2      52.5   115   7521
7 New York      18076   4903        1.4       70.6   10.9      52.7    82  47831
8 Ohio          10735   4561        0.8       70.8    7.4      53.2   124  40975
9 Virginia       4981   4701        1.4       70.1    9.5      47.8    85  39780
# ℹ 1 more variable: Region <chr>

subset(df, select = Population:Illiteracy)

               Population Income Illiteracy
Alabama              3615   3624        2.1
Alaska                365   6315        1.5
Arizona              2212   4530        1.8
Arkansas             2110   3378        1.9
California          21198   5114        1.1
Colorado             2541   4884        0.7
Connecticut          3100   5348        1.1
Delaware              579   4809        0.9
Florida              8277   4815        1.3
Georgia              4931   4091        2.0
Hawaii                868   4963        1.9
Idaho                 813   4119        0.6
Illinois            11197   5107        0.9
Indiana              5313   4458        0.7
Iowa                 2861   4628        0.5
Kansas               2280   4669        0.6
Kentucky             3387   3712        1.6
Louisiana            3806   3545        2.8
Maine                1058   3694        0.7
Maryland             4122   5299        0.9
Massachusetts        5814   4755        1.1
Michigan             9111   4751        0.9
Minnesota            3921   4675        0.6
Mississippi          2341   3098        2.4
Missouri             4767   4254        0.8
Montana               746   4347        0.6
Nebraska             1544   4508        0.6
Nevada                590   5149        0.5
New Hampshire         812   4281        0.7
New Jersey           7333   5237        1.1
New Mexico           1144   3601        2.2
New York            18076   4903        1.4
North Carolina       5441   3875        1.8
 [ reached 'max' / getOption("max.print") -- omitted 17 rows ]

tbl |>
  dplyr::select(c(State, Population:Illiteracy))

# A tibble: 50 × 4
   State       Population Income Illiteracy
   <chr>            <dbl>  <dbl>      <dbl>
 1 Alabama           3615   3624        2.1
 2 Alaska             365   6315        1.5
 3 Arizona           2212   4530        1.8
 4 Arkansas          2110   3378        1.9
 5 California       21198   5114        1.1
 6 Colorado          2541   4884        0.7
 7 Connecticut       3100   5348        1.1
 8 Delaware           579   4809        0.9
 9 Florida           8277   4815        1.3
10 Georgia           4931   4091        2  
# ℹ 40 more rows
…
tbl |>
  dplyr::filter(Population > 4500, Income > 4500) |>
  dplyr::select(c(State, Population:Illiteracy))

# A tibble: 9 × 4
  State         Population Income Illiteracy
  <chr>              <dbl>  <dbl>      <dbl>
1 California         21198   5114        1.1
2 Florida             8277   4815        1.3
3 Illinois           11197   5107        0.9
4 Massachusetts       5814   4755        1.1
5 Michigan            9111   4751        0.9
6 New Jersey          7333   5237        1.1
7 New York           18076   4903        1.4
8 Ohio               10735   4561        0.8
9 Virginia            4981   4701        1.4

transform()

transform() performs like dplyr::mutate().

transform(df, pop_density = Population / Area)

            Population Income Illiteracy Life.Exp Murder HS.Grad Frost   Area
Alabama           3615   3624        2.1    69.05   15.1    41.3    20  50708
Alaska             365   6315        1.5    69.31   11.3    66.7   152 566432
Arizona           2212   4530        1.8    70.55    7.8    58.1    15 113417
Arkansas          2110   3378        1.9    70.66   10.1    39.9    65  51945
California       21198   5114        1.1    71.71   10.3    62.6    20 156361
Colorado          2541   4884        0.7    72.06    6.8    63.9   166 103766
Connecticut       3100   5348        1.1    72.48    3.1    56.0   139   4862
Delaware           579   4809        0.9    70.06    6.2    54.6   103   1982
Florida           8277   4815        1.3    70.66   10.7    52.6    11  54090
Georgia           4931   4091        2.0    68.54   13.9    40.6    60  58073
               Region  pop_density
Alabama         South 0.0712905261
Alaska           West 0.0006443845
Arizona          West 0.0195032491
Arkansas        South 0.0406198864
California       West 0.1355708904
Colorado         West 0.0244877898
Connecticut Northeast 0.6375976964
Delaware        South 0.2921291625
Florida         South 0.1530227399
Georgia         South 0.0849103714
 [ reached 'max' / getOption("max.print") -- omitted 40 rows ]

tbl |>
  dplyr::mutate(pop_density = Population / Area)

# A tibble: 50 × 11
   State   Population Income Illiteracy `Life Exp` Murder `HS Grad` Frost   Area
   <chr>        <dbl>  <dbl>      <dbl>      <dbl>  <dbl>     <dbl> <dbl>  <dbl>
 1 Alabama       3615   3624        2.1       69.0   15.1      41.3    20  50708
 2 Alaska         365   6315        1.5       69.3   11.3      66.7   152 566432
 3 Arizona       2212   4530        1.8       70.6    7.8      58.1    15 113417
 4 Arkans…       2110   3378        1.9       70.7   10.1      39.9    65  51945
 5 Califo…      21198   5114        1.1       71.7   10.3      62.6    20 156361
 6 Colora…       2541   4884        0.7       72.1    6.8      63.9   166 103766
 7 Connec…       3100   5348        1.1       72.5    3.1      56     139   4862
 8 Delawa…        579   4809        0.9       70.1    6.2      54.6   103   1982
 9 Florida       8277   4815        1.3       70.7   10.7      52.6    11  54090
10 Georgia       4931   4091        2         68.5   13.9      40.6    60  58073
# ℹ 40 more rows
# ℹ 2 more variables: Region <chr>, pop_density <dbl>
…
tbl |> 
  tidyr::pivot_longer(c(Population, Income)) |> 
  dplyr::select(c(name, value))

# A tibble: 100 × 2
   name       value
   <chr>      <dbl>
 1 Population  3615
 2 Income      3624
 3 Population   365
 4 Income      6315
 5 Population  2212
 6 Income      4530
 7 Population  2110
 8 Income      3378
 9 Population 21198
10 Income      5114
# ℹ 90 more rows
…
